<?xml version="1.0" encoding="utf-8"?>
<!-- Generator: Adobe Illustrator 19.1.0, SVG Export Plug-In . SVG Version: 6.00 Build 0)  -->
<svg version="1.1" id="Шар_1" xmlns="http://www.w3.org/2000/svg" xmlns:xlink="http://www.w3.org/1999/xlink" x="0px" y="0px"
	 viewBox="0 0 395.3 82.5" style="enable-background:new 0 0 395.3 82.5;" xml:space="preserve">
<style type="text/css">
	.st0{fill:none;stroke:#33150D;stroke-width:0.9394;stroke-linecap:round;stroke-linejoin:round;}
	.st1{fill:none;stroke:#33150D;stroke-width:0.9394;stroke-linecap:round;stroke-linejoin:round;stroke-dasharray:2.8223,2.8223;}
	.st2{fill:#33150D;}
</style>
<g>
	<g>
		<path class="st0" d="M394.1,81.5c-0.2-0.4-0.4-0.8-0.7-1.2"/>
		<path class="st1" d="M392,77.8C326.5-33.8,82.1-15.8,2.3,75.4"/>
		<path class="st0" d="M1.4,76.5c-0.3,0.4-0.6,0.7-0.9,1.1"/>
		<g>
			<path class="st2" d="M395.2,73.9c-0.1-0.1-0.2-0.2-0.4-0.2c-0.3,0-0.5,0.2-0.5,0.4l-0.4,7.2l-6.3-3.4c-0.2-0.1-0.5,0-0.6,0.2
				c-0.1,0.2,0,0.5,0.2,0.6l7,3.7c0.1,0.1,0.3,0.1,0.5,0c0.1-0.1,0.2-0.2,0.2-0.4l0.4-7.9C395.3,74.1,395.3,74,395.2,73.9
				C395.1,73.8,395.3,74,395.2,73.9z"/>
		</g>
	</g>
</g>
</svg>
