<?xml version="1.0" encoding="utf-8"?>
<!-- Generator: Adobe Illustrator 16.0.0, SVG Export Plug-In . SVG Version: 6.00 Build 0)  -->
<!DOCTYPE svg PUBLIC "-//W3C//DTD SVG 1.1//EN" "http://www.w3.org/Graphics/SVG/1.1/DTD/svg11.dtd">
<svg version="1.1" id="Layer_1" xmlns="http://www.w3.org/2000/svg" xmlns:xlink="http://www.w3.org/1999/xlink" x="0px" y="0px"
	 width="21px" height="21px" viewBox="0 0 21 21" enable-background="new 0 0 21 21" xml:space="preserve">
<g id="Layer_1_1_">
	<g>
		<g>
			<path fill="#FFFFFF" d="M10.223,1.239c2.061,0,4.121,0,6.18,0.001c0.459,0,0.438,0.01,0.578,0.435
				c0.418,1.244,0.508,2.525,0.408,3.816c-0.043,0.565-0.184,1.129-0.334,1.678c-0.25,0.904-0.66,1.739-1.199,2.512
				c-0.758,1.082-1.73,1.905-2.904,2.508c-0.758,0.389-1.428,0.896-1.826,1.679c-0.1,0.198-0.167,0.435-0.172,0.655
				c-0.021,0.822,0,1.646-0.016,2.468c-0.006,0.342,0.137,0.593,0.363,0.819c0.422,0.424,0.965,0.654,1.484,0.922
				c0.434,0.222,0.873,0.427,1.305,0.646c0.109,0.057,0.219,0.133,0.297,0.227c0.059,0.066,0.102,0.188,0.078,0.268
				c-0.018,0.059-0.145,0.088-0.227,0.12c-0.035,0.015-0.08,0.003-0.121,0.003c-2.604,0-5.206,0.002-7.808-0.005
				c-0.117,0-0.233-0.085-0.349-0.13c0.061-0.118,0.09-0.286,0.187-0.346c0.332-0.207,0.687-0.377,1.033-0.561
				c0.67-0.354,1.396-0.604,1.956-1.146c0.238-0.229,0.377-0.492,0.367-0.84c-0.018-0.671-0.041-1.345,0.005-2.012
				c0.06-0.883-0.348-1.505-0.967-2.059c-0.528-0.474-1.17-0.756-1.761-1.125C5.544,11.005,4.637,9.938,3.975,8.65
				C3.588,7.894,3.329,7.091,3.161,6.263C2.976,5.351,2.96,4.417,3.064,3.503c0.082-0.717,0.322-1.416,0.508-2.118
				C3.589,1.322,3.72,1.253,3.803,1.248c0.286-0.017,0.574-0.007,0.861-0.007c1.853,0,3.706,0,5.559,0
				C10.223,1.241,10.223,1.241,10.223,1.239z M8.519,11.038c0.021-0.021,0.042-0.042,0.063-0.062
				c-0.112-0.121-0.224-0.243-0.338-0.362C7.278,9.607,6.636,8.416,6.258,7.081c-0.116-0.408-0.19-0.828-0.286-1.242
				c-0.04-0.171,0.021-0.26,0.199-0.263c0.072-0.001,0.144-0.001,0.215-0.001c3.058-0.001,6.117-0.001,9.176-0.002
				c0.365,0,0.379-0.015,0.396-0.367c0.039-0.752,0.024-1.5-0.123-2.241c-0.037-0.181-0.099-0.272-0.312-0.269
				C14.744,2.71,13.961,2.7,13.178,2.7c-2.746,0-5.493,0.003-8.24-0.002c-0.175,0-0.295,0.029-0.323,0.224
				C4.579,3.158,4.523,3.393,4.503,3.63c-0.102,1.191-0.018,2.36,0.389,3.5c0.347,0.971,0.863,1.828,1.58,2.568
				C7.056,10.3,7.74,10.741,8.519,11.038z"/>
		</g>
	</g>
</g>
<g id="Layer_2">
</g>
</svg>
